<?xml version="1.0" encoding="utf-8"?>
<!-- Generator: Adobe Illustrator 26.0.1, SVG Export Plug-In . SVG Version: 6.00 Build 0)  -->
<svg version="1.1" id="Layer_1" xmlns="http://www.w3.org/2000/svg" xmlns:xlink="http://www.w3.org/1999/xlink" x="0px" y="0px"
	 viewBox="0 0 119 107" style="enable-background:new 0 0 119 107;" xml:space="preserve">
<style type="text/css">
	.st0{fill:#7A5FFF;}
</style>
<g>
	<path class="st0" d="M117.2,62.7c-7.2,0-8.9,7.5-10.6,14.7c-2,8.6-4.1,17.4-14.1,17.4c-13,0-25.9,4.8-31.2,7v-8.4
		c24.9-0.9,44.9-21.4,44.9-46.6c0-25.7-20.9-46.6-46.6-46.6C33.9,0.3,13,21.2,13,46.9C13,72,33,92.5,57.9,93.4v8.4
		c-5.2-2.2-18.1-7-31.2-7c-10,0-12.1-8.8-14.1-17.4C10.9,70.2,9.2,62.7,2,62.7H0.3v25.9c0,9.7,7.9,17.6,17.6,17.6h41.7h0h41.7
		c9.7,0,17.6-7.9,17.6-17.6V62.7H117.2z M38.8,46.9c0-11.4,9.3-20.7,20.7-20.7s20.7,9.3,20.7,20.7c0,11.4-9.3,20.7-20.7,20.7
		S38.8,58.3,38.8,46.9z M75.4,28.7c-3.8-3.3-8.7-5.5-14.1-5.8V3.7c10.6,0.4,20.3,4.7,27.6,11.4L75.4,28.7z M57.9,22.8
		c-5.4,0.4-10.3,2.5-14.1,5.8L30.3,15.2c7.3-6.8,17-11,27.6-11.4V22.8z M61.3,71c5.4-0.4,10.3-2.5,14.1-5.9l13.5,13.5
		c-7.3,6.8-17,11.1-27.6,11.5V71z M91.3,76.2L77.8,62.7c3.3-3.8,5.5-8.7,5.8-14.1h19.1C102.3,59.2,98.1,68.9,91.3,76.2z M102.7,45.2
		H83.7c-0.4-5.4-2.5-10.3-5.9-14.1l13.5-13.5C98,24.9,102.3,34.5,102.7,45.2z M27.9,17.6l13.5,13.5c-3.3,3.8-5.5,8.7-5.9,14.1H16.4
		C16.9,34.5,21.1,24.9,27.9,17.6z M16.4,48.6h19.1c0.4,5.4,2.5,10.3,5.8,14.1L27.9,76.2C21.1,68.9,16.8,59.2,16.4,48.6z M30.3,78.6
		l13.5-13.5c3.8,3.3,8.7,5.5,14.1,5.9V90C47.2,89.6,37.6,85.4,30.3,78.6z M17.9,102.8c-7.8,0-14.2-6.4-14.2-14.2V66.4
		c2.9,1.1,4.1,5.4,5.6,11.8c2.1,8.9,4.7,20,17.4,20c8.8,0,17.7,2.4,23.9,4.5H17.9z M115.5,88.6c0,7.8-6.4,14.2-14.2,14.2H68.5
		c6.2-2.1,15.1-4.5,23.9-4.5c12.7,0,15.3-11.1,17.4-20c1.5-6.4,2.7-10.7,5.6-11.8V88.6z"/>
	<circle class="st0" cx="50.6" cy="41.1" r="2.4"/>
	<circle class="st0" cx="68.6" cy="41.1" r="2.4"/>
	<path class="st0" d="M59.6,58.1c3.7,0,6.7-3,6.7-6.7s-3-6.7-6.7-6.7c-3.7,0-6.7,3-6.7,6.7S55.9,58.1,59.6,58.1z M59.6,48.1
		c1.8,0,3.3,1.5,3.3,3.3s-1.5,3.3-3.3,3.3c-1.8,0-3.3-1.5-3.3-3.3S57.8,48.1,59.6,48.1z"/>
</g>
</svg>
