<svg width="41" height="41" viewBox="0 0 41 41" fill="none" xmlns="http://www.w3.org/2000/svg">
<path d="M5.125 20.5H35.875" stroke="#795FFF" stroke-width="3.41667" stroke-linecap="round" stroke-linejoin="round"/>
<path d="M5.125 10.25H35.875" stroke="#795FFF" stroke-width="3.41667" stroke-linecap="round" stroke-linejoin="round"/>
<path d="M5.125 30.75H35.875" stroke="#795FFF" stroke-width="3.41667" stroke-linecap="round" stroke-linejoin="round"/>
</svg>
